2 Трансформация данных – daR4hs
…
При загрузке пакета обычно появляется сообщение о версиях некоторых входящих в него пакетах и о конфликтующих функциях. Не стоит обращать на него внимание.

2.1 tibble

Современный вариант датафрейма называется тиббл и отличается от классического тем, как он печатается в консоли и некоторыми дополнительными возможностями. Для его создания нужно в функцию tibble() подать именованные векторы:

tibble(x = 1:100,
       y = 100:1,
       logical = sample(x = c("a", "b", "c"), size = 100, replace = TRUE))

# A tibble: 100 × 3
       x     y logical
   <int> <int> <chr>  
 1     1   100 c      
 2     2    99 b      
 3     3    98 a      
 4     4    97 c      
 5     5    96 c      
 6     6    95 c      
 7     7    94 c      
 8     8    93 b      
 9     9    92 a      
10    10    91 a      
# ℹ 90 more rows
…
[1] 0.7654264

Выражения с конвеерами можно запускать частями и смотреть, что на каком этапе трансформации данных получилось. Это полезно при поиске ошибок.

2.3 Функции семейства slice()

Дальше мы посмотрим на фрагмент данных из “Исследования дразнилки”Жадина-говядина” издания N+1, где исследовались социолингвистические аспекты влияющие на тенденцию к тому или иному продолжению. Переменные word_1, word_2 и word_3 соотвествуют разным вариантам начала, переменная type описывает классификацию, которую варианту дали исследователи, а переменная n отвечает за количество этих вариантов в данных.

zhadina <- read_csv("https://raw.githubusercontent.com/agricolamz/daR4hs/main/data/w2_zhadina.csv")
zhadina

# A tibble: 26 × 5
   word_1          word_2  word_3     type           n
   <chr>           <chr>   <chr>      <chr>      <dbl>
 1 жадина-говядина большая шоколадина шоколадина   941
 2 жадина-говядина бука    шоколадина шоколадина    44
 3 жадина-говядина булка   шоколадина шоколадина   250
 4 жадина-говядина в *опе  огурец     огурец        11
 5 жадина-говядина в *опе  шоколадина шоколадина  1117
 6 жадина-говядина гнилая  шоколадина шоколадина    12
 7 жадина-говядина дома    шоколадина шоколадина    29
 8 жадина-говядина зеленый огурец     огурец       343
 9 жадина-говядина злая    шоколадина шоколадина    10
10 жадина-говядина кислая  капуста    другое        10
# ℹ 16 more rows
…
2.4 Функция select()

Функция select() позволяет выбрать из датасета некоторый набор столбцов.

zhadina |> 
  select(word_1, type, n)

# A tibble: 26 × 3
   word_1          type           n
   <chr>           <chr>      <dbl>
 1 жадина-говядина шоколадина   941
 2 жадина-говядина шоколадина    44
 3 жадина-говядина шоколадина   250
 4 жадина-говядина огурец        11
 5 жадина-говядина шоколадина  1117
 6 жадина-говядина шоколадина    12
 7 жадина-говядина шоколадина    29
 8 жадина-говядина огурец       343
 9 жадина-говядина шоколадина    10
10 жадина-говядина другое        10
# ℹ 16 more rows

Внутри функции select() можно использовать функции, которые позволяют не только перечислять через запятую необходимые столбцы, но и выделять их по имени:

zhadina |> 
  select(starts_with("word"))

# A tibble: 26 × 3
   word_1          word_2  word_3    
   <chr>           <chr>   <chr>     
 1 жадина-говядина большая шоколадина
 2 жадина-говядина бука    шоколадина
 3 жадина-говядина булка   шоколадина
 4 жадина-говядина в *опе  огурец    
 5 жадина-говядина в *опе  шоколадина
 6 жадина-говядина гнилая  шоколадина
 7 жадина-говядина дома    шоколадина
 8 жадина-говядина зеленый огурец    
 9 жадина-говядина злая    шоколадина
10 жадина-говядина кислая  капуста   
# ℹ 16 more rows

zhadina |> 
  select(ends_with("1"))

# A tibble: 26 × 1
   word_1         
   <chr>          
 1 жадина-говядина
 2 жадина-говядина
 3 жадина-говядина
 4 жадина-говядина
 5 жадина-говядина
 6 жадина-говядина
 7 жадина-говядина
 8 жадина-говядина
 9 жадина-говядина
10 жадина-говядина
# ℹ 16 more rows

zhadina |> 
  select(matches("ord"))

# A tibble: 26 × 3
   word_1          word_2  word_3    
   <chr>           <chr>   <chr>     
 1 жадина-говядина большая шоколадина
 2 жадина-говядина бука    шоколадина
 3 жадина-говядина булка   шоколадина
 4 жадина-говядина в *опе  огурец    
 5 жадина-говядина в *опе  шоколадина
 6 жадина-говядина гнилая  шоколадина
 7 жадина-говядина дома    шоколадина
 8 жадина-говядина зеленый огурец    
 9 жадина-говядина злая    шоколадина
10 жадина-говядина кислая  капуста   
# ℹ 16 more rows

Кроме того, внутри функции select() действует оператор двоеточие, который мы видели при создании векторов 5:10:

zhadina |> 
  select(word_3:n) # от колонки word_3 до колонки n

# A tibble: 26 × 3
   word_3     type           n
   <chr>      <chr>      <dbl>
 1 шоколадина шоколадина   941
 2 шоколадина шоколадина    44
 3 шоколадина шоколадина   250
 4 огурец     огурец        11
 5 шоколадина шоколадина  1117
 6 шоколадина шоколадина    12
 7 шоколадина шоколадина    29
 8 огурец     огурец       343
 9 шоколадина шоколадина    10
10 капуста    другое        10
# ℹ 16 more rows
…
zhadina |> 
  filter(n != 10) # не равно

# A tibble: 23 × 5
   word_1          word_2  word_3     type           n
   <chr>           <chr>   <chr>      <chr>      <dbl>
 1 жадина-говядина большая шоколадина шоколадина   941
 2 жадина-говядина бука    шоколадина шоколадина    44
 3 жадина-говядина булка   шоколадина шоколадина   250
 4 жадина-говядина в *опе  огурец     огурец        11
 5 жадина-говядина в *опе  шоколадина шоколадина  1117
 6 жадина-говядина гнилая  шоколадина шоколадина    12
 7 жадина-говядина дома    шоколадина шоколадина    29
 8 жадина-говядина зеленый огурец     огурец       343
 9 жадина-говядина кошка   поросятина другое        42
10 жадина-говядина кошка   шоколадина шоколадина    18
# ℹ 13 more rows
…
zhadina |> 
  count(word_1, word_2, sort = TRUE)

# A tibble: 21 × 3
   word_1          word_2       n
   <chr>           <chr>    <int>
 1 жадина-говядина соленый      3
 2 жадина-говядина в *опе       2
 3 жадина-говядина кошка        2
 4 жадина-говядина турецкий     2
 5 жадина-говядина *опа         1
 6 жадина-говядина большая      1
 7 жадина-говядина бука         1
 8 жадина-говядина булка        1
 9 жадина-говядина гнилая       1
10 жадина-говядина дома         1
# ℹ 11 more rows
…
zhadina |> 
  distinct(word_1, word_2)

# A tibble: 21 × 2
   word_1          word_2 
   <chr>           <chr>  
 1 жадина-говядина большая
 2 жадина-говядина бука   
 3 жадина-говядина булка  
 4 жадина-говядина в *опе 
 5 жадина-говядина гнилая 
 6 жадина-говядина дома   
 7 жадина-говядина зеленый
 8 жадина-говядина злая   
 9 жадина-говядина кислая 
10 жадина-говядина кошка  
# ℹ 11 more rows
…
2.7 Функция mutate()

Функция mutate() позволяет создавать и изменять уже имеющиеся переменные:

zhadina |> 
  mutate(nchar = nchar(word_3),
         nchar2 = nchar(word_3)*2)

# A tibble: 26 × 7
   word_1          word_2  word_3     type           n nchar nchar2
   <chr>           <chr>   <chr>      <chr>      <dbl> <int>  <dbl>
 1 жадина-говядина большая шоколадина шоколадина   941    10     20
 2 жадина-говядина бука    шоколадина шоколадина    44    10     20
 3 жадина-говядина булка   шоколадина шоколадина   250    10     20
 4 жадина-говядина в *опе  огурец     огурец        11     6     12
 5 жадина-говядина в *опе  шоколадина шоколадина  1117    10     20
 6 жадина-говядина гнилая  шоколадина шоколадина    12    10     20
 7 жадина-говядина дома    шоколадина шоколадина    29    10     20
 8 жадина-говядина зеленый огурец     огурец       343     6     12
 9 жадина-говядина злая    шоколадина шоколадина    10    10     20
10 жадина-говядина кислая  капуста    другое        10     7     14
# ℹ 16 more rows

zhadina |> 
  mutate(n = n^3)

# A tibble: 26 × 5
   word_1          word_2  word_3     type                n
   <chr>           <chr>   <chr>      <chr>           <dbl>
 1 жадина-говядина большая шоколадина шоколадина  833237621
 2 жадина-говядина бука    шоколадина шоколадина      85184
 3 жадина-говядина булка   шоколадина шоколадина   15625000
 4 жадина-говядина в *опе  огурец     огурец           1331
 5 жадина-говядина в *опе  шоколадина шоколадина 1393668613
 6 жадина-говядина гнилая  шоколадина шоколадина       1728
 7 жадина-говядина дома    шоколадина шоколадина      24389
 8 жадина-говядина зеленый огурец     огурец       40353607
 9 жадина-говядина злая    шоколадина шоколадина       1000
10 жадина-говядина кислая  капуста    другое           1000
# ℹ 16 more rows
…
zhadina |> 
  group_by(type, word_3) |> 
  mutate(mean_by_type = mean(n),
         median_by_type = median(n))

# A tibble: 26 × 7
# Groups:   type, word_3 [9]
   word_1          word_2  word_3     type         n mean_by_type median_by_type
   <chr>           <chr>   <chr>      <chr>    <dbl>        <dbl>          <dbl>
 1 жадина-говядина большая шоколадина шоколад…   941         509.             50
 2 жадина-говядина бука    шоколадина шоколад…    44         509.             50
 3 жадина-говядина булка   шоколадина шоколад…   250         509.             50
 4 жадина-говядина в *опе  огурец     огурец      11        9088             343
 5 жадина-говядина в *опе  шоколадина шоколад…  1117         509.             50
 6 жадина-говядина гнилая  шоколадина шоколад…    12         509.             50
 7 жадина-говядина дома    шоколадина шоколад…    29         509.             50
 8 жадина-говядина зеленый огурец     огурец     343        9088             343
 9 жадина-говядина злая    шоколадина шоколад…    10         509.             50
10 жадина-говядина кислая  капуста    другое      10          10              10
# ℹ 16 more rows

zhadina |> 
  group_by(type) |> 
  mutate(mean_by_type = mean(n),
         median_by_type = median(n))

# A tibble: 26 × 7
# Groups:   type [4]
   word_1          word_2  word_3     type         n mean_by_type median_by_type
   <chr>           <chr>   <chr>      <chr>    <dbl>        <dbl>          <dbl>
 1 жадина-говядина большая шоколадина шоколад…   941        481.            54.5
 2 жадина-говядина бука    шоколадина шоколад…    44        481.            54.5
 3 жадина-говядина булка   шоколадина шоколад…   250        481.            54.5
 4 жадина-говядина в *опе  огурец     огурец      11       9088            343  
 5 жадина-говядина в *опе  шоколадина шоколад…  1117        481.            54.5
 6 жадина-говядина гнилая  шоколадина шоколад…    12        481.            54.5
 7 жадина-говядина дома    шоколадина шоколад…    29        481.            54.5
 8 жадина-говядина зеленый огурец     огурец     343       9088            343  
 9 жадина-говядина злая    шоколадина шоколад…    10        481.            54.5
10 жадина-говядина кислая  капуста    другое      10         18.4           13  
# ℹ 16 more rows

2.9 Функция across()

Функция across() позволяет применять одно и то же изменение к группе колонок, которые выбираются набором функций сходных с операциями для функции select(). Важно отметить, что трансформация обычно описывается функцией, и имя функции обычно пишут без круглых скобок.

zhadina |> 
  mutate(across(starts_with("word"), toupper))

# A tibble: 26 × 5
   word_1          word_2  word_3     type           n
   <chr>           <chr>   <chr>      <chr>      <dbl>
 1 ЖАДИНА-ГОВЯДИНА БОЛЬШАЯ ШОКОЛАДИНА шоколадина   941
 2 ЖАДИНА-ГОВЯДИНА БУКА    ШОКОЛАДИНА шоколадина    44
 3 ЖАДИНА-ГОВЯДИНА БУЛКА   ШОКОЛАДИНА шоколадина   250
 4 ЖАДИНА-ГОВЯДИНА В *ОПЕ  ОГУРЕЦ     огурец        11
 5 ЖАДИНА-ГОВЯДИНА В *ОПЕ  ШОКОЛАДИНА шоколадина  1117
 6 ЖАДИНА-ГОВЯДИНА ГНИЛАЯ  ШОКОЛАДИНА шоколадина    12
 7 ЖАДИНА-ГОВЯДИНА ДОМА    ШОКОЛАДИНА шоколадина    29
 8 ЖАДИНА-ГОВЯДИНА ЗЕЛЕНЫЙ ОГУРЕЦ     огурец       343
 9 ЖАДИНА-ГОВЯДИНА ЗЛАЯ    ШОКОЛАДИНА шоколадина    10
10 ЖАДИНА-ГОВЯДИНА КИСЛАЯ  КАПУСТА    другое        10
# ℹ 16 more rows

zhadina |> 
  mutate(across(where(is.character), toupper))

# A tibble: 26 × 5
   word_1          word_2  word_3     type           n
   <chr>           <chr>   <chr>      <chr>      <dbl>
 1 ЖАДИНА-ГОВЯДИНА БОЛЬШАЯ ШОКОЛАДИНА ШОКОЛАДИНА   941
 2 ЖАДИНА-ГОВЯДИНА БУКА    ШОКОЛАДИНА ШОКОЛАДИНА    44
 3 ЖАДИНА-ГОВЯДИНА БУЛКА   ШОКОЛАДИНА ШОКОЛАДИНА   250
 4 ЖАДИНА-ГОВЯДИНА В *ОПЕ  ОГУРЕЦ     ОГУРЕЦ        11
 5 ЖАДИНА-ГОВЯДИНА В *ОПЕ  ШОКОЛАДИНА ШОКОЛАДИНА  1117
 6 ЖАДИНА-ГОВЯДИНА ГНИЛАЯ  ШОКОЛАДИНА ШОКОЛАДИНА    12
 7 ЖАДИНА-ГОВЯДИНА ДОМА    ШОКОЛАДИНА ШОКОЛАДИНА    29
 8 ЖАДИНА-ГОВЯДИНА ЗЕЛЕНЫЙ ОГУРЕЦ     ОГУРЕЦ       343
 9 ЖАДИНА-ГОВЯДИНА ЗЛАЯ    ШОКОЛАДИНА ШОКОЛАДИНА    10
10 ЖАДИНА-ГОВЯДИНА КИСЛАЯ  КАПУСТА    ДРУГОЕ        10
# ℹ 16 more rows
…
# A tibble: 4 × 3
  type            n new_numeric_value
  <chr>       <dbl>             <dbl>
1 барабан     760              0.929 
2 другое       18.4           -0.472 
3 огурец     9088              0.0772
4 шоколадина  481.             0.190 

zhadina |> 
  mutate(new_numeric_value = rnorm(26)) |> 
  group_by(type) |> 
  mutate(across(where(is.double), mean))

# A tibble: 26 × 6
# Groups:   type [4]
   word_1          word_2  word_3     type            n new_numeric_value
   <chr>           <chr>   <chr>      <chr>       <dbl>             <dbl>
 1 жадина-говядина большая шоколадина шоколадина  481.            -0.0562
 2 жадина-говядина бука    шоколадина шоколадина  481.            -0.0562
 3 жадина-говядина булка   шоколадина шоколадина  481.            -0.0562
 4 жадина-говядина в *опе  огурец     огурец     9088             -0.687 
 5 жадина-говядина в *опе  шоколадина шоколадина  481.            -0.0562
 6 жадина-говядина гнилая  шоколадина шоколадина  481.            -0.0562
 7 жадина-говядина дома    шоколадина шоколадина  481.            -0.0562
 8 жадина-говядина зеленый огурец     огурец     9088             -0.687 
 9 жадина-говядина злая    шоколадина шоколадина  481.            -0.0562
10 жадина-говядина кислая  капуста    другое       18.4           -0.851 
# ℹ 16 more rows
…
Сейчас данные в так называемом широком формате. Хинди в датасете встречается единожды, но значения сколько носителей выучили его как первый/второй/третий/все вместе записаны в виде отдельных столбцов.

india_langauges_wide |> 
  pivot_longer(names_to = "L", values_to = "value", n_L1_sp:n_all_sp)

# A tibble: 48 × 3
   language L            value
   <chr>    <chr>        <dbl>
 1 Hindi    n_L1_sp  422048642
 2 Hindi    n_L2_sp   98207180
 3 Hindi    n_L3_sp   31160696
 4 Hindi    n_all_sp 551416518
 5 English  n_L1_sp     226449
 6 English  n_L2_sp   86125221
 7 English  n_L3_sp   38993066
 8 English  n_all_sp 125344736
 9 Bengali  n_L1_sp   83369769
10 Bengali  n_L2_sp    6637222
# ℹ 38 more rows
…
2.11 Функции семейства bind_...()

Функции bind_rows() и bind_cols() позволяют соединять несколько таблиц. Функция bind_rows() присоединяет таблицу снизу, при этом она должна иметь столько же переменных и тип переменных должен совпадать с основной таблицей.

zhadina_new <- tibble(word_1 = "жадина-говядина",
                      word_2 = "пупецкий",
                      word_3 = "барабан",
                      type = "барабан",
                      n = 0)

zhadina |> 
  bind_rows(zhadina_new)

# A tibble: 27 × 5
   word_1          word_2  word_3     type           n
   <chr>           <chr>   <chr>      <chr>      <dbl>
 1 жадина-говядина большая шоколадина шоколадина   941
 2 жадина-говядина бука    шоколадина шоколадина    44
 3 жадина-говядина булка   шоколадина шоколадина   250
 4 жадина-говядина в *опе  огурец     огурец        11
 5 жадина-говядина в *опе  шоколадина шоколадина  1117
 6 жадина-говядина гнилая  шоколадина шоколадина    12
 7 жадина-говядина дома    шоколадина шоколадина    29
 8 жадина-говядина зеленый огурец     огурец       343
 9 жадина-говядина злая    шоколадина шоколадина    10
10 жадина-говядина кислая  капуста    другое        10
# ℹ 17 more rows

Функция bind_cols() присоединяет таблицу справа, при этом она должна иметь столько же строчек, сколько есть в с основной таблице:

zhadina_additional_columns <- tibble(new_var1 = rnorm(26),
                                     new_var2 = letters)

zhadina |> 
  bind_cols(zhadina_additional_columns)

# A tibble: 26 × 7
   word_1          word_2  word_3     type           n new_var1 new_var2
   <chr>           <chr>   <chr>      <chr>      <dbl>    <dbl> <chr>   
 1 жадина-говядина большая шоколадина шоколадина   941   1.58   a       
 2 жадина-говядина бука    шоколадина шоколадина    44   0.643  b       
 3 жадина-говядина булка   шоколадина шоколадина   250   0.0898 c       
 4 жадина-говядина в *опе  огурец     огурец        11   0.277  d       
 5 жадина-говядина в *опе  шоколадина шоколадина  1117   0.679  e       
 6 жадина-говядина гнилая  шоколадина шоколадина    12   0.0898 f       
 7 жадина-говядина дома    шоколадина шоколадина    29  -2.99   g       
 8 жадина-говядина зеленый огурец     огурец       343   0.285  h       
 9 жадина-говядина злая    шоколадина шоколадина    10  -0.367  i       
10 жадина-говядина кислая  капуста    другое        10   0.185  j       
# ℹ 16 more rows

2.12 Функции семейства ..._join()

zhadina |> 
  distinct(type) |> 
  mutate(our_new_var1 = rnorm(4),
         our_new_var2 = letters[1:4]) ->
  type_new_var

zhadina |> 
  left_join(type_new_var)

Joining with `by = join_by(type)`

# A tibble: 26 × 7
   word_1          word_2  word_3     type           n our_new_var1 our_new_var2
   <chr>           <chr>   <chr>      <chr>      <dbl>        <dbl> <chr>       
 1 жадина-говядина большая шоколадина шоколадина   941       -0.886 a           
 2 жадина-говядина бука    шоколадина шоколадина    44       -0.886 a           
 3 жадина-говядина булка   шоколадина шоколадина   250       -0.886 a           
 4 жадина-говядина в *опе  огурец     огурец        11       -1.10  b           
 5 жадина-говядина в *опе  шоколадина шоколадина  1117       -0.886 a           
 6 жадина-говядина гнилая  шоколадина шоколадина    12       -0.886 a           
 7 жадина-говядина дома    шоколадина шоколадина    29       -0.886 a           
 8 жадина-говядина зеленый огурец     огурец       343       -1.10  b           
 9 жадина-говядина злая    шоколадина шоколадина    10       -0.886 a           
10 жадина-говядина кислая  капуста    другое        10        1.51  c           
# ℹ 16 more rows

zhadina |> 
  distinct(type) |> 
  mutate(our_new_var1 = rnorm(4),
         our_new_var2 = letters[1:4]) |> 
  slice(-1) ->
  type_new_var2

zhadina |> 
  left_join(type_new_var2)

Joining with `by = join_by(type)`

# A tibble: 26 × 7
   word_1          word_2  word_3     type           n our_new_var1 our_new_var2
   <chr>           <chr>   <chr>      <chr>      <dbl>        <dbl> <chr>       
 1 жадина-говядина большая шоколадина шоколадина   941       NA     <NA>        
 2 жадина-говядина бука    шоколадина шоколадина    44       NA     <NA>        
 3 жадина-говядина булка   шоколадина шоколадина   250       NA     <NA>        
 4 жадина-говядина в *опе  огурец     огурец        11       -0.121 b           
 5 жадина-говядина в *опе  шоколадина шоколадина  1117       NA     <NA>        
 6 жадина-говядина гнилая  шоколадина шоколадина    12       NA     <NA>        
 7 жадина-говядина дома    шоколадина шоколадина    29       NA     <NA>        
 8 жадина-говядина зеленый огурец     огурец       343       -0.121 b           
 9 жадина-говядина злая    шоколадина шоколадина    10       NA     <NA>        
10 жадина-говядина кислая  капуста    другое        10       -1.19  c           
# ℹ 16 more rows
…
