daR4hs - 4 Работа со строками
…
Warning in stri_rand_lipsum(nparagraphs = 2): The 'nparagraphs' argument in
stri_rand_lipsum is a deprecated alias of 'n_paragraphs' and will be removed in
a future release of 'stringi'.

[1] "Lorem ipsum dolor sit amet, donec sit nunc urna sed ultricies ac pharetra orci luctus iaculis, ac tincidunt cum. Neque eu semper at sociosqu hendrerit. Eu aliquet lacus, eu hendrerit donec aliquam eros. Risus nibh, quam in sit facilisi ipsum. Amet sem sed donec sed molestie scelerisque tincidunt. Nisl donec et facilisis interdum non sed dolor purus. In ipsum dignissim torquent velit nec aliquam pellentesque. Ac, adipiscing, neque et at torquent, vestibulum ullamcorper. Ad dictumst enim velit non nulla felis habitant. Egestas placerat consectetur, dictum nostra sed nec. Erat phasellus dolor libero aliquam viverra. Vestibulum leo et. Suscipit egestas in in montes, sapien gravida? Conubia purus varius ut nec feugiat."
[2] "Risus eleifend magnis neque diam, suspendisse ullamcorper nulla adipiscing malesuada massa, nisi sociosqu velit id et. Aliquam facilisis et aenean. Parturient vel ac in convallis, massa diam nibh. Nulla interdum cursus et. Natoque amet, ut praesent. Tortor ultrices a consectetur, augue natoque class faucibus? Ut sed arcu elementum magna. Dignissim ac facilisi quis ut nisl eu, massa."                                                                                                                                                                                                                                                                                                                                                  

4.3 Соединение и разделение строк

Соединенить строки можно используя функцию str_c(), в которую, как и в функции с(), можно перечислять элементы через запятую:

tibble(upper = rev(LETTERS), smaller = letters) |>  
  mutate(merge = str_c(upper, smaller))

# A tibble: 26 × 3
   upper smaller merge
   <chr> <chr>   <chr>
 1 Z     a       Za   
 2 Y     b       Yb   
 3 X     c       Xc   
 4 W     d       Wd   
 5 V     e       Ve   
 6 U     f       Uf   
 7 T     g       Tg   
 8 S     h       Sh   
 9 R     i       Ri   
10 Q     j       Qj   
# ℹ 16 more rows

Кроме того, если хочется, можно использовать особенный разделитель, указав его в аргументе sep:

tibble(upper = rev(LETTERS), smaller = letters) |>  
  mutate(merge = str_c(upper, smaller, sep = "_"))

# A tibble: 26 × 3
   upper smaller merge
   <chr> <chr>   <chr>
 1 Z     a       Z_a  
 2 Y     b       Y_b  
 3 X     c       X_c  
 4 W     d       W_d  
 5 V     e       V_e  
 6 U     f       U_f  
 7 T     g       T_g  
 8 S     h       S_h  
 9 R     i       R_i  
10 Q     j       Q_j  
# ℹ 16 more rows
…
Для разделение строки на подстроки можно использовать функцию separate(). Это функция разносит разделенные элементы строки в соответствующие столбцы. У функции три обязательных аргумента: col — колонка, которую следует разделить, into — вектор названий новых столбец, sep — разделитель.

tibble(upper = rev(LETTERS), smaller = letters) |>  
  mutate(merge = str_c(upper, smaller, sep = "_")) |>  
  separate(col = merge, into = c("column_1", "column_2"), sep = "_")

# A tibble: 26 × 4
   upper smaller column_1 column_2
   <chr> <chr>   <chr>    <chr>   
 1 Z     a       Z        a       
 2 Y     b       Y        b       
 3 X     c       X        c       
 4 W     d       W        d       
 5 V     e       V        e       
 6 U     f       U        f       
 7 T     g       T        g       
 8 S     h       S        h       
 9 R     i       R        i       
10 Q     j       Q        j       
# ℹ 16 more rows
…
