5 Работа с текстами – Введение в анализ данных на R для гуманитарных и социальных наук
…
gutenberg_metadata |> 
  filter(author == "Austen, Jane") |> 
  distinct(gutenberg_id, title)

Давайте скачаем “Эмму”:

emma <- gutenberg_download(158)

Determining mirror for Project Gutenberg from https://www.gutenberg.org/robot/harvest

Using mirror http://aleph.gutenberg.org

emma

# A tibble: 16,488 × 2
   gutenberg_id text            
          <int> <chr>           
 1          158 "Emma"          
 2          158 ""              
 3          158 "by Jane Austen"
 4          158 ""              
 5          158 ""              
 6          158 "Contents"      
 7          158 ""              
 8          158 " VOLUME I."    
 9          158 " CHAPTER I."   
10          158 " CHAPTER II."  
# ℹ 16,478 more rows

Можно скачивать сразу несколько книг. Давайте добавим еще “Леди Сьюзен”:

books <- gutenberg_download(c(158, 946), meta_fields = "title")
books

# A tibble: 19,028 × 3
   gutenberg_id text             title
          <int> <chr>            <chr>
 1          158 "Emma"           Emma 
 2          158 ""               Emma 
 3          158 "by Jane Austen" Emma 
 4          158 ""               Emma 
 5          158 ""               Emma 
 6          158 "Contents"       Emma 
 7          158 ""               Emma 
 8          158 " VOLUME I."     Emma 
 9          158 " CHAPTER I."    Emma 
10          158 " CHAPTER II."   Emma 
# ℹ 19,018 more rows
…
