6 Работа со временем – Введение в анализ данных на R для гуманитарных и социальных наук
…
library(lubridate)
today()

[1] "2024-08-01"

now()

[1] "2024-08-01 20:45:31 MSK"

Как видно из этих функций в R можно работать как с датами, так и со временем. В качестве иллюстрации мы будем использовать датасет flights из пакета nycflights13, в котором содержатся данные полетов из Нью Йорка в 2013 году.

library(nycflights13)
flights

# A tibble: 336,776 × 19
    year month   day dep_time sched_dep_time dep_delay arr_time sched_arr_time
   <int> <int> <int>    <int>          <int>     <dbl>    <int>          <int>
 1  2013     1     1      517            515         2      830            819
 2  2013     1     1      533            529         4      850            830
 3  2013     1     1      542            540         2      923            850
 4  2013     1     1      544            545        -1     1004           1022
 5  2013     1     1      554            600        -6      812            837
 6  2013     1     1      554            558        -4      740            728
 7  2013     1     1      555            600        -5      913            854
 8  2013     1     1      557            600        -3      709            723
 9  2013     1     1      557            600        -3      838            846
10  2013     1     1      558            600        -2      753            745
# ℹ 336,766 more rows
# ℹ 11 more variables: arr_delay <dbl>, carrier <chr>, flight <int>,
#   tailnum <chr>, origin <chr>, dest <chr>, air_time <dbl>, distance <dbl>,
#   hour <dbl>, minute <dbl>, time_hour <dttm>
…
hm("20.01")

[1] "20H 1M 0S"

ms("23:59")

[1] "23M 59S"

Также существует команда make_datetime(), которая позволяет сделать дату из нескольких переменных:

flights |> 
  mutate(departure = make_datetime(year, month, day, hour, minute)) |> 
  select(departure)

# A tibble: 336,776 × 1
   departure          
   <dttm>             
 1 2013-01-01 05:15:00
 2 2013-01-01 05:29:00
 3 2013-01-01 05:40:00
 4 2013-01-01 05:45:00
 5 2013-01-01 06:00:00
 6 2013-01-01 05:58:00
 7 2013-01-01 06:00:00
 8 2013-01-01 06:00:00
 9 2013-01-01 06:00:00
10 2013-01-01 06:00:00
# ℹ 336,766 more rows
…
